%YAML 1.1
%TAG !u! tag:unity3d.com,2011:
--- !u!114 &11400000
MonoBehaviour:
  m_ObjectHideFlags: 0
  m_CorrespondingSourceObject: {fileID: 0}
  m_PrefabInstance: {fileID: 0}
  m_PrefabAsset: {fileID: 0}
  m_GameObject: {fileID: 0}
  m_Enabled: 1
  m_EditorHideFlags: 0
  m_Script: {fileID: 11500000, guid: 95e66c6366d904e98bc83428217d4fd7, type: 3}
  m_Name: Movimiento Transform
  m_EditorClassIdentifier: 
  _data:
    _json: '{"graph":{"variables":{"Kind":"Flow","collection":{"$content":[],"$version":"A"},"$version":"A"},"controlInputDefinitions":[],"controlOutputDefinitions":[],"valueInputDefinitions":[],"valueOutputDefinitions":[],"title":"Movimiento
      Transform","summary":null,"pan":{"x":92.24125,"y":-4.193996},"zoom":1.0,"elements":[{"coroutine":false,"defaultValues":{},"position":{"x":-274.0,"y":-157.0},"guid":"7f98ba37-64f2-4165-bf39-63d690164448","$version":"A","$type":"Unity.VisualScripting.Update","$id":"9"},{"chainable":false,"member":{"name":"ClampMagnitude","parameterTypes":["UnityEngine.Vector3","System.Single"],"targetType":"UnityEngine.Vector3","targetTypeName":"UnityEngine.Vector3","$version":"A"},"defaultValues":{"%vector":{"x":0.0,"y":0.0,"z":0.0,"$type":"UnityEngine.Vector3"},"%maxLength":{"$content":1.0,"$type":"System.Single"}},"position":{"x":-60.0,"y":-162.0},"guid":"30a6efdf-51c0-4276-ac70-f038cfed0406","$version":"A","$type":"Unity.VisualScripting.InvokeMember","$id":"11"},{"specifyFallback":false,"kind":"Object","defaultValues":{"name":{"$content":"MoveAxis","$type":"System.String"},"object":null},"position":{"x":-288.0,"y":-9.0},"guid":"557ab216-e7db-4527-80b3-a62f5165f4ec","$version":"A","$type":"Unity.VisualScripting.GetVariable","$id":"14"},{"defaultValues":{},"position":{"x":189.0,"y":-15.0},"guid":"0d0db5b9-e024-4232-a068-795b219de2ea","$version":"A","$type":"Unity.VisualScripting.GenericMultiply","$id":"16"},{"specifyFallback":false,"kind":"Object","defaultValues":{"name":{"$content":"MoveSpeed","$type":"System.String"},"object":null},"position":{"x":-71.0,"y":28.0},"guid":"c81aa708-6ade-443a-b9a8-ef3d467dfc9d","$version":"A","$type":"Unity.VisualScripting.GetVariable","$id":"18"},{"defaultValues":{},"position":{"x":84.0,"y":127.0},"guid":"aa2d910c-2d17-41ab-ae03-7daa288b952b","$version":"A","$type":"Unity.VisualScripting.GenericMultiply","$id":"20"},{"member":{"name":"deltaTime","parameterTypes":null,"targetType":"UnityEngine.Time","targetTypeName":"UnityEngine.Time","$version":"A"},"defaultValues":{},"position":{"x":-271.0,"y":157.0},"guid":"ea763805-00ba-430e-891c-2703539cbb44","$version":"A","$type":"Unity.VisualScripting.GetMember","$id":"22"},{"chainable":false,"member":{"name":"Translate","parameterTypes":["UnityEngine.Vector3"],"targetType":"UnityEngine.Transform","targetTypeName":"UnityEngine.Transform","$version":"A"},"defaultValues":{"target":null,"%translation":{"x":0.0,"y":0.0,"z":0.0,"$type":"UnityEngine.Vector3"}},"position":{"x":330.0,"y":-173.0},"guid":"4d9a2903-4d4f-4552-89d4-8414840ef2be","$version":"A","$type":"Unity.VisualScripting.InvokeMember","$id":"25"},{"sourceUnit":{"$ref":"9"},"sourceKey":"trigger","destinationUnit":{"$ref":"11"},"destinationKey":"enter","guid":"c9cc9e35-b034-4cdb-ad0c-f3bc46e6a48e","$type":"Unity.VisualScripting.ControlConnection"},{"sourceUnit":{"$ref":"11"},"sourceKey":"exit","destinationUnit":{"$ref":"25"},"destinationKey":"enter","guid":"2917501b-ac52-4017-98db-1da075686efa","$type":"Unity.VisualScripting.ControlConnection"},{"sourceUnit":{"$ref":"14"},"sourceKey":"value","destinationUnit":{"$ref":"11"},"destinationKey":"%vector","guid":"68bd6ebe-89f3-42c1-b88b-6d3430391712","$type":"Unity.VisualScripting.ValueConnection"},{"sourceUnit":{"$ref":"11"},"sourceKey":"result","destinationUnit":{"$ref":"16"},"destinationKey":"a","guid":"e576aee3-68bf-4b18-bff5-53c45dfafa66","$type":"Unity.VisualScripting.ValueConnection"},{"sourceUnit":{"$ref":"18"},"sourceKey":"value","destinationUnit":{"$ref":"20"},"destinationKey":"a","guid":"d32a2a7a-6454-44aa-a62b-3c456174ef39","$type":"Unity.VisualScripting.ValueConnection"},{"sourceUnit":{"$ref":"20"},"sourceKey":"product","destinationUnit":{"$ref":"16"},"destinationKey":"b","guid":"5037376d-48f3-492b-9d93-44d888a91171","$type":"Unity.VisualScripting.ValueConnection"},{"sourceUnit":{"$ref":"22"},"sourceKey":"value","destinationUnit":{"$ref":"20"},"destinationKey":"b","guid":"3960e663-1f80-4eeb-af19-a60bf34f7da3","$type":"Unity.VisualScripting.ValueConnection"},{"sourceUnit":{"$ref":"16"},"sourceKey":"product","destinationUnit":{"$ref":"25"},"destinationKey":"%translation","guid":"882e3ce7-f4a6-4ec4-ab35-44b2261e3604","$type":"Unity.VisualScripting.ValueConnection"}],"$version":"A"}}'
    _objectReferences: []
